Workshop Deliverable
…
## there are two options, keep or drop variables 

## keep variables

Census2020Sub <- Census2020 %>%
  select(Area,
         '2020 Census Resident Population',
         'Numeric Change',
         'Percent Change',
         'State Rank Based on 2020 Census Resident Population')
  
Census2020Sub

## # A tibble: 51 x 5
##    Area   `2020 Census Res~ `Numeric Change` `Percent Change` `State Rank Based~
##    <chr>              <dbl>            <dbl>            <dbl> <chr>             
##  1 Alaba~           5024279           244543              5.1 24                
##  2 Alaska            733391            23160              3.3 48                
##  3 Arizo~           7151502           759485             11.9 14                
##  4 Arkan~           3011524            95606              3.3 33                
##  5 Calif~          39538223          2284267              6.1 1                 
##  6 Color~           5773714           744518             14.8 21                
##  7 Conne~           3605944            31847              0.9 29                
##  8 Delaw~            989948            92014             10.2 45                
##  9 Distr~            689545            87822             14.6 X                 
## 10 Flori~          21538187          2736877             14.6 3                 
## # ... with 41 more rows

## drop variables

Census2020SubOpt2 <- Census2020 %>%
  select(-c('2010 Census Resident Population',
            'State Rank Based on 2010 Census Resident Population',
            'State Rank Based on Percent Change'))

Census2020SubOpt2

## # A tibble: 51 x 6
##    Area   `2020 Census Res~ `Numeric Change` `Percent Change` `State Rank Based~
##    <chr>              <dbl>            <dbl>            <dbl> <chr>             
##  1 Alaba~           5024279           244543              5.1 24                
##  2 Alaska            733391            23160              3.3 48                
##  3 Arizo~           7151502           759485             11.9 14                
##  4 Arkan~           3011524            95606              3.3 33                
##  5 Calif~          39538223          2284267              6.1 1                 
##  6 Color~           5773714           744518             14.8 21                
##  7 Conne~           3605944            31847              0.9 29                
##  8 Delaw~            989948            92014             10.2 45                
##  9 Distr~            689545            87822             14.6 X                 
## 10 Flori~          21538187          2736877             14.6 3                 
## # ... with 41 more rows, and 1 more variable:
## #   State Rank Based on Numeric Change <chr>
…
